…
marj_df = nsduh_import(html = nsduh_html, table_number = 1, outcome_name = "Marijuana Use")

marj_df 
```

    ## # A tibble: 510 × 5
    ##    State   age   year      percent outcome      
    ##    <chr>   <chr> <chr>       <dbl> <chr>        
    ##  1 Alabama 12+   2013-2014    9.98 Marijuana Use
    ##  2 Alabama 12+   2014-2015    9.6  Marijuana Use
    ##  3 Alabama 12-17 2013-2014    9.9  Marijuana Use
    ##  4 Alabama 12-17 2014-2015    9.71 Marijuana Use
    ##  5 Alabama 18-25 2013-2014   27.0  Marijuana Use
    ##  6 Alabama 18-25 2014-2015   26.1  Marijuana Use
    ##  7 Alabama 26+   2013-2014    7.1  Marijuana Use
    ##  8 Alabama 26+   2014-2015    6.81 Marijuana Use
    ##  9 Alabama 18+   2013-2014    9.99 Marijuana Use
    ## 10 Alabama 18+   2014-2015    9.59 Marijuana Use
    ## # ℹ 500 more rows
